Kansas City Community Survey - 12 Appendix III - Research Design
…
Cunningham Ridge was a strategically sampled NH. Dr. Kotlaja’s team replaced it with Oak Park Southwest, which was the next NH on the list of high violent crime rates.

Rockhill was selected via stratified random sampling as one of the original 5 NHs in District 4. Dr. Kotlaja asked us to randomly sample a backup neighborhood from District 4 to replace it.

12.3.6.3 Read in Data

Let’s read in a datafile containing all the KC neighborhoods.

Show code

nhdata <- read_excel(here("Data", "KC_NHs.xlsx"))
nhdata

# A tibble: 239 × 3
   NBHID BlockGroup               DistrictOrdinal
   <dbl> <chr>                              <dbl>
 1     0 KC Zoo-Swope Park                      5
 2     1 Columbus Park Industrial               4
 3     2 River Market                           4
 4     3 Quality Hill                           4
 5     4 CBD Downtown                           3
 6     5 Paseo West                             5
 7     6 Hospital Hill                          4
 8     7 Crossroads                             4
 9     8 Westside North                         4
10     9 Westside South                         4
# ℹ 229 more rows
…
