reluctant criminologists - Causation without Correlation?
…
simdata <- tibble(SES, Strain, Risk, Delinquency)
simdata <- simdata %>% mutate(
  Delinquency = ifelse(Delinquency < 0, Delinquency == 0, Delinquency)
)

simdata

# A tibble: 1,000 × 4
     SES Strain  Risk Delinquency
   <dbl>  <dbl> <dbl>       <dbl>
 1    -1      1     0           2
 2    -1     -1     0           0
 3     0      1     1           2
 4     0     -1     0           0
 5    -1      0     1           0
 6    -1      1     0           2
 7     2     -1    -1           1
 8    -1      0    -1           4
 9     0      0    -2           2
10     1      0    -1           4
# … with 990 more rows
…
