reluctant criminologists - RRR: Mediation Makes My Head Hurt!
…
Simulate data

Show code

set.seed(1138)
n <- 500
GroupA<-rbinom(n=1000,size=1,prob=0.50)
ChgM <- -.1*GroupA + rnorm(n)
ChgY <- .5*ChgM + -.5*GroupA + .4*GroupA*ChgM + rnorm(n)
simdata <- tibble(GroupA, ChgM, ChgY)

simdata

# A tibble: 1,000 × 3
   GroupA   ChgM    ChgY
    <int>  <dbl>   <dbl>
 1      0 -0.358  0.687 
 2      0 -0.490 -2.07  
 3      0 -0.115  0.895 
 4      1 -0.451 -1.65  
 5      1 -0.588 -1.31  
 6      0 -0.961  0.371 
 7      1 -0.732 -1.51  
 8      1  0.294 -0.344 
 9      0 -0.249  0.0797
10      1 -2.42  -2.25  
# ℹ 990 more rows
…
